…
    ## Joining, by = "word"

Just glancing at what's left in the corpus, I think I didn't pull out exactly the right words. I'll see what my other options are for removing stop words. Also, I need to account for repeated phrases — these are lyrics, after all! That being said, let's look at a quick count of what's left.

``` r
bey_long %>%
  count(word, sort=TRUE)
```

    ## # A tibble: 5,937 x 2
    ##    word      n
    ##    <chr> <int>
    ##  1 love   1362
    ##  2 baby   1024
    ##  3 girl    592
    ##  4 wanna   564
    ##  5 hey     499
    ##  6 boy     494
    ##  7 yeah    491
    ##  8 feel    488
    ##  9 time    452
    ## 10 uh      408
    ## # … with 5,927 more rows
…
